C:\clase3\formacion1\src\main\java\net\techu\ProductosController.java
C:\clase3\formacion1\src\main\java\com\example\formacion1\Formacion1Application.java
C:\clase3\formacion1\src\main\java\net\techu\BeanPersonalizacion.java
C:\clase3\formacion1\src\main\java\net\techu\TiendaAplication.java
C:\clase3\formacion1\src\main\java\net\techu\SaludoController.java
C:\clase3\formacion1\src\main\java\net\techu\BeanContexto.java
C:\clase3\formacion1\src\main\java\net\techu\ProductosV2Controller.java
C:\clase3\formacion1\src\main\java\net\techu\Producto.java
